{
  "count": 6,
  "next_url": "/api/v1/posts/?page=2",
  "posts": [
    {
      "body": "\r\n\r\nThe Bermuda Triangle, also known as the Devil's Triangle, is a loosely defined region in the western part of the North Atlantic Ocean. This area has gained notoriety due to numerous aircraft and ships allegedly disappearing under mysterious circumstances. The mystery surrounding the Bermuda Triangle has captured the imagination of people for decades, leading to various theories and speculations.\r\n\r\n## Origins and Geography\r\n\r\nThe Bermuda Triangle's vertices are generally considered to be Miami (Florida, USA), Bermuda, and Puerto Rico. While the boundaries aren't precisely defined, the area is known for its purported high number of unexplained disappearances.\r\n\r\n\r\n## Historical Incidents\r\n\r\nNumerous stories and reports have circulated about ships and planes vanishing without a trace while passing through the Bermuda Triangle. Some of the most famous incidents include the disappearance of Flight 19, a squadron of U.S. Navy bombers, and the vanishing of the USS Cyclops, a collier ship.\r\n\r\n## Theories and Speculations\r\n\r\nVarious theories attempt to explain the mysterious phenomena in the Bermuda Triangle. These range from natural explanations such as magnetic anomalies and methane hydrate eruptions to more speculative ideas involving extraterrestrial interference or underwater city ruins.\r\n\r\n### Magnetic Anomalies\r\n\r\nSome scientists propose that the Bermuda Triangle's unique geography may cause magnetic anomalies, leading to compass malfunctions and navigation errors.\r\n\r\n### Methane Hydrate Eruptions\r\n\r\nAnother theory suggests that pockets of methane hydrate, a form of natural gas, could erupt from the ocean floor, creating bubbles that reduce the water's density and make ships lose buoyancy.\r\n\r\n### Human Error and Technology Issues\r\n\r\nSkeptics argue that many incidents can be attributed to human error, navigational challenges, and the limitations of technology during the time of the reported disappearances.\r\n\r\n## Conclusion\r\n\r\nWhile the Bermuda Triangle continues to be a source of intrigue and speculation, scientific evidence supporting the existence of supernatural or extraterrestrial forces remains lacking. Most incidents can be explained by natural phenomena or human factors. The mystery of the Bermuda Triangle serves as a reminder of the vastness and unpredictability of the world's oceans.\r\n\r\nExplore the depths of the Bermuda Triangle, but remember to approach its mysteries with a critical mind and an appreciation for the wonders of our planet.",
      "body_html": "<p>The Bermuda Triangle, also known as the Devil's Triangle, is a loosely defined region in the western part of the North Atlantic Ocean. This area has gained notoriety due to numerous aircraft and ships allegedly disappearing under mysterious circumstances. The mystery surrounding the Bermuda Triangle has captured the imagination of people for decades, leading to various theories and speculations.</p>\n<h2>Origins and Geography</h2>\n<p>The Bermuda Triangle's vertices are generally considered to be Miami (Florida, USA), Bermuda, and Puerto Rico. While the boundaries aren't precisely defined, the area is known for its purported high number of unexplained disappearances.</p>\n<h2>Historical Incidents</h2>\n<p>Numerous stories and reports have circulated about ships and planes vanishing without a trace while passing through the Bermuda Triangle. Some of the most famous incidents include the disappearance of Flight 19, a squadron of U.S. Navy bombers, and the vanishing of the USS Cyclops, a collier ship.</p>\n<h2>Theories and Speculations</h2>\n<p>Various theories attempt to explain the mysterious phenomena in the Bermuda Triangle. These range from natural explanations such as magnetic anomalies and methane hydrate eruptions to more speculative ideas involving extraterrestrial interference or underwater city ruins.</p>\n<h3>Magnetic Anomalies</h3>\n<p>Some scientists propose that the Bermuda Triangle's unique geography may cause magnetic anomalies, leading to compass malfunctions and navigation errors.</p>\n<h3>Methane Hydrate Eruptions</h3>\n<p>Another theory suggests that pockets of methane hydrate, a form of natural gas, could erupt from the ocean floor, creating bubbles that reduce the water's density and make ships lose buoyancy.</p>\n<h3>Human Error and Technology Issues</h3>\n<p>Skeptics argue that many incidents can be attributed to human error, navigational challenges, and the limitations of technology during the time of the reported disappearances.</p>\n<h2>Conclusion</h2>\n<p>While the Bermuda Triangle continues to be a source of intrigue and speculation, scientific evidence supporting the existence of supernatural or extraterrestrial forces remains lacking. Most incidents can be explained by natural phenomena or human factors. The mystery of the Bermuda Triangle serves as a reminder of the vastness and unpredictability of the world's oceans.</p>\n<p>Explore the depths of the Bermuda Triangle, but remember to approach its mysteries with a critical mind and an appreciation for the wonders of our planet.</p>",
      "comment_count": 1,
      "timestamp": "Sun, 18 Feb 2024 03:38:21 GMT",
      "url": "/api/v1/posts/1"
    },
    {
      "body": "Here is some text in my blog post.\r\n\r\n\r\n    ```python\r\n    def hello_world():\r\n        print(\"Hello, World!\")\r\n\r\n    hello_world()\r\n    ```\r\n\r\n    More text in the blog post.\r\n\r\n    ```java\r\n    public class Example {\r\n        public static void main(String[] args) {\r\n            System.out.println(\"Hello, World!\");\r\n        }\r\n    }\r\n\r\n    ```",
      "body_html": "<p>Here is some text in my blog post.</p>\n<pre><code>```python\ndef hello_world():\n    print(\"Hello, World!\")\n\nhello_world()\n```\n\nMore text in the blog post.\n\n```java\npublic class Example {\n    public static void main(String[] args) {\n        System.out.println(\"Hello, World!\");\n    }\n}\n\n```\n</code></pre>",
      "comment_count": 2,
      "timestamp": "Sun, 18 Feb 2024 15:07:30 GMT",
      "url": "/api/v1/posts/2"
    },
    {
      "body": "### Windows:\r\n\r\n#### Using System Properties:\r\n\r\n1. Right-click on the Computer icon or This PC on your desktop or in File Explorer.\r\n2. Select \"Properties.\"\r\n3. Click on \"Advanced system settings\" on the left.\r\n4. In the System Properties window, click the \"Environment Variables\" button.\r\n5. Under \"System variables\" or \"User variables,\" click \"New\" to add a new variable or select an existing variable and click \"Edit\" to modify its value.\r\n\r\n#### Using Command Prompt:\r\n\r\n- Open a Command Prompt window.\r\n- Use the `setx` command to set a new environment variable. For example:\r\n  `\r\n  setx VARIABLE_NAME \"variable_value\" /M`.\r\n\r\n#### Replace VARIABLE_NAME with the name of your variable and \"variable_value\" with the desired value. The /M flag makes it a system-wide variable.\r\n\r\n\r\n### Linux:\r\n\r\n#### Editing /etc/environment:\r\n- Open the /etc/environment file using a text editor with superuser privileges:\r\n`sudo nano /etc/environment`\r\n- Add the variable in the form `VARIABLE_NAME=\"variable_value\"`.\r\n- Save the file and exit the text editor.\r\n- Log out and log back in or restart your system for the changes to take effect.\r\n\r\n#### Remember to replace VARIABLE_NAME with your desired variable name and \"variable_value\" with the value you want to set. The changes will take effect in new terminal sessions or system reboots.\r\n",
      "body_html": "<h3>Windows:</h3>\n\nUsing System Properties:\n<ol>\n<li>Right-click on the Computer icon or This PC on your desktop or in File Explorer.</li>\n<li>Select \"Properties.\"</li>\n<li>Click on \"Advanced system settings\" on the left.</li>\n<li>In the System Properties window, click the \"Environment Variables\" button.</li>\n<li>Under \"System variables\" or \"User variables,\" click \"New\" to add a new variable or select an existing variable and click \"Edit\" to modify its value.</li>\n</ol>\n\nUsing Command Prompt:\n<ul>\n<li>Open a Command Prompt window.</li>\n<li>Use the <code>setx</code> command to set a new environment variable. For example:\n  <code>setx VARIABLE_NAME \"variable_value\" /M</code>.</li>\n</ul>\n\nReplace VARIABLE_NAME with the name of your variable and \"variable_value\" with the desired value. The /M flag makes it a system-wide variable.\n<h3>Linux:</h3>\n\nEditing /etc/environment:\n<ul>\n<li>Open the /etc/environment file using a text editor with superuser privileges:\n<code>sudo nano /etc/environment</code></li>\n<li>Add the variable in the form <code>VARIABLE_NAME=\"variable_value\"</code>.</li>\n<li>Save the file and exit the text editor.</li>\n<li>Log out and log back in or restart your system for the changes to take effect.</li>\n</ul>\n\nRemember to replace VARIABLE_NAME with your desired variable name and \"variable_value\" with the value you want to set. The changes will take effect in new terminal sessions or system reboots.",
      "comment_count": 0,
      "timestamp": "Mon, 19 Feb 2024 15:21:14 GMT",
      "url": "/api/v1/posts/3"
    },
    {
      "body": "\r\nProgramming is a powerful skill that enables individuals to solve problems, automate tasks, and build innovative solutions. In this blog post, we'll explore fundamental programming concepts that every aspiring programmer should understand.\r\n\r\n## 1. What is Programming?\r\n\r\nProgramming is the process of designing and building executable computer programs to accomplish a specific task. It involves writing code using a programming language that computers can understand and execute.\r\n\r\n## 2. Programming Paradigms\r\n\r\nThere are different programming paradigms, each with its approach to structuring code. Common paradigms include procedural, object-oriented, and functional programming.\r\n\r\n## 3. Variables and Data Types\r\n\r\nVariables are containers for storing data in a program. Understanding data types such as integers, strings, and booleans is crucial for effective variable usage.\r\n\r\n## 4. Control Flow\r\n\r\nControl flow mechanisms, including loops and conditional statements, dictate the order in which a program executes its instructions. They are essential for creating dynamic and responsive applications.\r\n\r\n## 5. Functions\r\n\r\nFunctions are reusable blocks of code that perform a specific task. They help in organizing code, promoting modularity, and making programs easier to understand.\r\n\r\n## 6. Object-Oriented Programming (OOP)\r\n\r\nOOP is a programming paradigm that revolves around the concept of objects. It promotes encapsulation, inheritance, and polymorphism, enhancing code organization and reuse.\r\n\r\n## 7. Error Handling\r\n\r\nUnderstanding how to handle errors gracefully is crucial for writing robust and reliable programs. Exception handling mechanisms vary across programming languages.\r\n\r\n## 8. Algorithms and Data Structures\r\n\r\nEfficient algorithms and data structures are the backbone of successful programming. They impact the performance and scalability of applications.\r\n\r\n## 9. Version Control\r\n\r\nVersion control systems like Git help programmers track changes in their codebase, collaborate with others, and maintain a history of project modifications.\r\n\r\n## 10. Software Development Life Cycle (SDLC)\r\n\r\nThe SDLC outlines the stages involved in software development, including planning, design, implementation, testing, deployment, and maintenance.\r\n\r\n## Conclusion\r\n\r\nThese programming concepts provide a solid foundation for anyone entering the world of software development. As you continue your programming journey, delve deeper into each concept and apply them in real-world projects.\r\n\r\nHappy coding!\r\n",
      "body_html": "<p>Programming is a powerful skill that enables individuals to solve problems, automate tasks, and build innovative solutions. In this blog post, we'll explore fundamental programming concepts that every aspiring programmer should understand.</p>\n<h2>1. What is Programming?</h2>\n<p>Programming is the process of designing and building executable computer programs to accomplish a specific task. It involves writing code using a programming language that computers can understand and execute.</p>\n<h2>2. Programming Paradigms</h2>\n<p>There are different programming paradigms, each with its approach to structuring code. Common paradigms include procedural, object-oriented, and functional programming.</p>\n<h2>3. Variables and Data Types</h2>\n<p>Variables are containers for storing data in a program. Understanding data types such as integers, strings, and booleans is crucial for effective variable usage.</p>\n<h2>4. Control Flow</h2>\n<p>Control flow mechanisms, including loops and conditional statements, dictate the order in which a program executes its instructions. They are essential for creating dynamic and responsive applications.</p>\n<h2>5. Functions</h2>\n<p>Functions are reusable blocks of code that perform a specific task. They help in organizing code, promoting modularity, and making programs easier to understand.</p>\n<h2>6. Object-Oriented Programming (OOP)</h2>\n<p>OOP is a programming paradigm that revolves around the concept of objects. It promotes encapsulation, inheritance, and polymorphism, enhancing code organization and reuse.</p>\n<h2>7. Error Handling</h2>\n<p>Understanding how to handle errors gracefully is crucial for writing robust and reliable programs. Exception handling mechanisms vary across programming languages.</p>\n<h2>8. Algorithms and Data Structures</h2>\n<p>Efficient algorithms and data structures are the backbone of successful programming. They impact the performance and scalability of applications.</p>\n<h2>9. Version Control</h2>\n<p>Version control systems like Git help programmers track changes in their codebase, collaborate with others, and maintain a history of project modifications.</p>\n<h2>10. Software Development Life Cycle (SDLC)</h2>\n<p>The SDLC outlines the stages involved in software development, including planning, design, implementation, testing, deployment, and maintenance.</p>\n<h2>Conclusion</h2>\n<p>These programming concepts provide a solid foundation for anyone entering the world of software development. As you continue your programming journey, delve deeper into each concept and apply them in real-world projects.</p>\n<p>Happy coding!</p>",
      "comment_count": 6,
      "timestamp": "Mon, 19 Feb 2024 15:29:56 GMT",
      "url": "/api/v1/posts/4"
    },
    {
      "body": "\r\n## Introduction\r\n\r\nLinux, an open-source operating system kernel, has revolutionized the world of computing since its inception. Renowned for its stability, security, and flexibility, Linux has become a cornerstone of the technology landscape.\r\n\r\n## The Basics of Linux\r\n\r\n### Open Source Philosophy\r\n\r\nAt the heart of Linux is its commitment to the open-source philosophy. This means that the source code of the operating system is freely available for anyone to view, modify, and distribute. This collaborative approach has led to a vibrant community of developers contributing to the continual improvement of Linux.\r\n\r\n### Distros and Variants\r\n\r\nOne of the unique aspects of Linux is the availability of different distributions or \"distros.\" Each distro can have its own package management system, desktop environment, and specific use cases. Popular examples include Ubuntu for user-friendliness, CentOS for server environments, and Arch Linux for those who prefer a more hands-on experience.\r\n\r\n## The Command Line Interface (CLI)\r\n\r\n### Power and Efficiency\r\n\r\nLinux enthusiasts often rave about the power of the command line interface (CLI). While GUIs (Graphical User Interfaces) exist, many tasks can be accomplished more efficiently through the terminal. Learning basic commands opens up a world of possibilities for users to customize their environments and automate repetitive tasks.\r\n\r\n### Package Management\r\n\r\nLinux employs package managers to handle software installation, updates, and removal. Common package management tools include `apt` for Debian-based systems, `yum` for Red Hat-based systems, and `pacman` for Arch Linux. These tools simplify the software management process and help maintain a clean and secure system.\r\n\r\n## Security and Stability\r\n\r\n### Robust Security Model\r\n\r\nLinux is renowned for its security features. With a robust permission system, firewalls, and regular security updates, Linux provides a secure environment for users. The open-source nature allows the community to promptly address vulnerabilities and release patches.\r\n\r\n### Stability in Server Environments\r\n\r\nMany server environments rely on Linux due to its stability and uptime. Systems running Linux can often operate for extended periods without requiring a reboot. This makes Linux an ideal choice for critical infrastructure and high-performance computing.\r\n\r\n## Community and Collaboration\r\n\r\n### Thriving Open Source Community\r\n\r\nThe Linux community is a diverse and vibrant ecosystem of developers, enthusiasts, and users. Online forums, mailing lists, and conferences provide avenues for collaboration and knowledge-sharing. This collective effort has been instrumental in the continuous improvement and evolution of Linux.\r\n\r\n### Contributions from Corporations\r\n\r\nMajor corporations, including Red Hat, IBM, and Google, actively contribute to the development of Linux. Their involvement ensures that Linux remains a cutting-edge platform, capable of meeting the demands of modern computing.\r\n\r\n## Conclusion\r\n\r\nLinux has come a long way from its humble beginnings. Its open-source nature, versatility, and community-driven development have made it a powerhouse in the world of operating systems. Whether you're a developer, system administrator, or an everyday user, Linux offers a compelling and reliable computing experience.\r\n",
      "body_html": "<h2>Introduction</h2>\n<p>Linux, an open-source operating system kernel, has revolutionized the world of computing since its inception. Renowned for its stability, security, and flexibility, Linux has become a cornerstone of the technology landscape.</p>\n<h2>The Basics of Linux</h2>\n<h3>Open Source Philosophy</h3>\n<p>At the heart of Linux is its commitment to the open-source philosophy. This means that the source code of the operating system is freely available for anyone to view, modify, and distribute. This collaborative approach has led to a vibrant community of developers contributing to the continual improvement of Linux.</p>\n<h3>Distros and Variants</h3>\n<p>One of the unique aspects of Linux is the availability of different distributions or \"distros.\" Each distro can have its own package management system, desktop environment, and specific use cases. Popular examples include Ubuntu for user-friendliness, CentOS for server environments, and Arch Linux for those who prefer a more hands-on experience.</p>\n<h2>The Command Line Interface (CLI)</h2>\n<h3>Power and Efficiency</h3>\n<p>Linux enthusiasts often rave about the power of the command line interface (CLI). While GUIs (Graphical User Interfaces) exist, many tasks can be accomplished more efficiently through the terminal. Learning basic commands opens up a world of possibilities for users to customize their environments and automate repetitive tasks.</p>\n<h3>Package Management</h3>\n<p>Linux employs package managers to handle software installation, updates, and removal. Common package management tools include <code>apt</code> for Debian-based systems, <code>yum</code> for Red Hat-based systems, and <code>pacman</code> for Arch Linux. These tools simplify the software management process and help maintain a clean and secure system.</p>\n<h2>Security and Stability</h2>\n<h3>Robust Security Model</h3>\n<p>Linux is renowned for its security features. With a robust permission system, firewalls, and regular security updates, Linux provides a secure environment for users. The open-source nature allows the community to promptly address vulnerabilities and release patches.</p>\n<h3>Stability in Server Environments</h3>\n<p>Many server environments rely on Linux due to its stability and uptime. Systems running Linux can often operate for extended periods without requiring a reboot. This makes Linux an ideal choice for critical infrastructure and high-performance computing.</p>\n<h2>Community and Collaboration</h2>\n<h3>Thriving Open Source Community</h3>\n<p>The Linux community is a diverse and vibrant ecosystem of developers, enthusiasts, and users. Online forums, mailing lists, and conferences provide avenues for collaboration and knowledge-sharing. This collective effort has been instrumental in the continuous improvement and evolution of Linux.</p>\n<h3>Contributions from Corporations</h3>\n<p>Major corporations, including Red Hat, IBM, and Google, actively contribute to the development of Linux. Their involvement ensures that Linux remains a cutting-edge platform, capable of meeting the demands of modern computing.</p>\n<h2>Conclusion</h2>\n<p>Linux has come a long way from its humble beginnings. Its open-source nature, versatility, and community-driven development have made it a powerhouse in the world of operating systems. Whether you're a developer, system administrator, or an everyday user, Linux offers a compelling and reliable computing experience.</p>",
      "comment_count": 0,
      "timestamp": "Tue, 20 Feb 2024 15:42:24 GMT",
      "url": "/api/v1/posts/5"
    }
  ],
  "prev_url": null
}
